// Jest Snapshot v1, https://goo.gl/fbAQLP

exports[`SignUpScreen tests Snapshot tests renders correctly 1`] = `
<Component
  style={
    Object {
      "backgroundColor": "#FFFFFF",
      "flex": 1,
      "justifyContent": "space-around",
    }
  }
>
  <Component />
  <Component
    style={
      Object {
        "alignItems": "center",
        "flex": 2,
        "justifyContent": "center",
      }
    }
  >
    <Logo
      height={150}
    />
  </Component>
  <Component>
    <SignUpForm
      initialValues={
        Object {
          "confirmPassword": "",
          "email": "",
          "name": "",
          "password": "",
        }
      }
      onSubmit={[Function]}
    />
  </Component>
  <Component
    style={
      Object {
        "flex": 1,
        "justifyContent": "center",
      }
    }
  >
    <LoginLink
      linkText="Entre aqui"
      mainText="Já tem uma conta? "
      onPress={[Function]}
    />
  </Component>
</Component>
`;
